10 3 * * * jsub -mem 4g -quiet -once -N iv_scan /data/project/glamtools/scripts/inventory_bot.php scan
#10 7 * * * jsub -mem 4g -quiet -once -N iv_match /data/project/glamtools/scripts/inventory_bot.php match_all

0,2,4,6,8,10,12,14,16,18,20,22,24,26,28,30,32,34,36,38,40,42,44,46,48,50,52,54,56,58 * 2 * * jsub -mem 4g -quiet -N next /data/project/glamtools/baglama2/bg_create_catalog_month.php next lm lm
1,16,31,46 * * * * jsub -mem 4g -quiet -N just_added /data/project/glamtools/baglama2/bg_create_catalog_month.php just_added lm lm
